{
    "invalid_username": "Username nuk eshte i vlefshem",
    "invalid_password": "Passwordi nuk eshte i vlefshem",
    "duplicated_entry": "Useri ekziston ne databaze",
    "successfully_created": "Useri u krijua",
    "user_does_not_exist": "Useri nuk ekziston ne databaze",
    "wrong_credentials": "Passwordi nuk eshte i sakte",
    "successfully_authenticated": "Useri u be log in"
}
